More linear Regression with brms (Exercise)
…
Upload the ZIP archive on Stud.IP in the homework folder before the deadline. You may upload as many times as you like before the deadline, only your final submission will count.

I prepared an aggregated data frame dolphin_agg2 for you.

# make correct a factor
dolphin$correct <- as.factor(dolphin$correct)

# aggregate
dolphin_agg2 <- dolphin %>% 
  group_by(exemplar, group, condition, correct) %>% 
  dplyr::summarize(MAD = median(MAD, na.rm = TRUE)) 

dolphin_agg2

## # A tibble: 65 x 5
## # Groups:   exemplar, group, condition [38]
##    exemplar  group condition correct   MAD
##    <chr>     <chr> <chr>     <fct>   <dbl>
##  1 alligator click Typical   0       508. 
##  2 alligator click Typical   1        43.0
##  3 alligator touch Typical   0        34.3
##  4 alligator touch Typical   1        11.1
##  5 bat       click Atypical  0        48.3
##  6 bat       click Atypical  1        69.9
##  7 bat       touch Atypical  0       159. 
##  8 bat       touch Atypical  1        14.6
##  9 butterfly click Atypical  0       -39.8
## 10 butterfly click Atypical  1       105. 
## # … with 55 more rows
…
