Generalized Linear Regression with brms
…
Exercises

Exercise 1 (self practice)

Use the following data frame:

# set up data frame
dolphin_agg <- dolphin %>% 
  filter(correct == 1) %>% 
  mutate(straight = as.factor(ifelse(prototype_label == "straight", 1, 0)),
         log_RT_s = scale(log(RT)))

dolphin_agg

## # A tibble: 1,915 x 18
##       X1 trial_id   MAD     AUC xpos_flips    RT prototype_label subject_id
##    <dbl> <chr>    <dbl>   <dbl>      <dbl> <dbl> <chr>                <dbl>
##  1     1 id0001    82.5  40170.          3   950 straight              1001
##  2     2 id0002    44.7  13947           1  1251 straight              1001
##  3     4 id0004   139.   74084           0   690 curved                1001
##  4     5 id0005   402.  223083           2   951 cCoM                  1001
##  5     6 id0006   670.  308376           2  1079 cCoM                  1001
##  6     7 id0007   850.  281298.          1  1050 dCoM                  1001
##  7     8 id0008    30.8  -2242           0   830 straight              1001
##  8     9 id0009    47.8  16458.          2   700 straight              1001
##  9    10 id0010   -22.6  -2794.          0   810 straight              1001
## 10    11 id0011   423.  182278.          2  1264 cCoM                  1001
## # … with 1,905 more rows, and 10 more variables: group <chr>, condition <chr>,
## #   exemplar <chr>, category_left <chr>, category_right <chr>,
## #   category_correct <chr>, response <chr>, correct <dbl>, straight <fct>,
## #   log_RT_s[,1] <dbl>
…
model1b_preds

## # A tibble: 61 x 7
##    log_RT lower_CrI_click mean_CrI_click upper_CrI_click lower_CrI_touch
##     <dbl>           <dbl>          <dbl>           <dbl>           <dbl>
##  1  -10             0.843          0.950           0.990        0.000126
##  2   -9.5           0.837          0.946           0.989        0.000205
##  3   -9             0.831          0.941           0.986        0.000335
##  4   -8.5           0.825          0.935           0.983        0.000546
##  5   -8             0.818          0.929           0.980        0.000889
##  6   -7.5           0.811          0.922           0.976        0.00145 
##  7   -7             0.805          0.915           0.971        0.00235 
##  8   -6.5           0.797          0.907           0.965        0.00384 
##  9   -6             0.790          0.898           0.959        0.00623 
## 10   -5.5           0.782          0.888           0.951        0.0101  
## # … with 51 more rows, and 2 more variables: mean_CrI_touch <dbl>,
## #   upper_CrI_touch <dbl>
…
