Recap of BDA: Exercises
…
Represent the data given in the two vectors above in a tibble with two columns called species and height. Call the data set ffm_data (“fictitious flower measures”). Make sure you understand why this is a ‘tidy’ representation for most common purposes (e.g., obvious ways of plotting or analyzing).

# combine the two heights to one vector
height <- c(heights_A, heights_B)
# repeat/replicate species, each 25 times
species <- rep(c("A","B"), times=c(25,25))

# Or use: pivot_longer(cols = everything(), names_to = 'species', values_to = 'height')

# The tibble representation caps the after-comma digits, 
# but internally the numbers are still the same.
ffm_data <- tibble(species, height)
ffm_data

## # A tibble: 50 x 2
##    species height
##    <chr>    <dbl>
##  1 A         6.94
##  2 A        11.8 
##  3 A         8.97
##  4 A        12.2 
##  5 A         8.48
##  6 A         9.29
##  7 A        13.0 
##  8 A        13.6 
##  9 A         7.63
## 10 A        11.5 
## # … with 40 more rows
…
Answer: A single sample consists of two values, one for the mean and one for the variance.

Exercise 2.b [SELF-PRACTICE]: Take samples from the posterior distribution

Generate 10,000 samples from the posterior distribution when conditioning the model with the data in heights_A. Store the result in a variables called post_samples_A_noninfo.

post_samples_A_noninfo <- get_samples_single_normal(heights_A, n_samples=10000)
post_samples_A_noninfo

## # A tibble: 10,000 x 2
##       mu sigma
##    <dbl> <dbl>
##  1 10.2   1.82
##  2  9.96  2.02
##  3  9.88  2.13
##  4  9.72  2.20
##  5  9.99  2.00
##  6  9.91  1.78
##  7 10.0   1.52
##  8  9.99  1.54
##  9 10.0   1.38
## 10 10.0   2.04
## # … with 9,990 more rows
…
