EVEN more linear Regression with brms (Exercise)
…
Upload the ZIP archive on Stud.IP in the homework folder before the deadline. You may upload as many times as you like before the deadline, only your final submission will count.

I prepared an aggregated data frame dolphin_agg2 for you.

# aggregate
dolphin_agg2 <- dolphin %>% 
  filter(correct == 1) %>% 
  group_by(exemplar, group, condition) %>% 
  dplyr::summarize(MAD = median(MAD, na.rm = TRUE),
                   RT = median(RT, na.rm = TRUE)) %>% 
  mutate(log_RT = log(RT))

dolphin_agg2

## # A tibble: 38 x 6
## # Groups:   exemplar, group [38]
##    exemplar  group condition   MAD    RT log_RT
##    <chr>     <chr> <chr>     <dbl> <dbl>  <dbl>
##  1 alligator click Typical    43.0 1637    7.40
##  2 alligator touch Typical    11.1 1350    7.21
##  3 bat       click Atypical   69.9 2042.   7.62
##  4 bat       touch Atypical   14.6 1675    7.42
##  5 butterfly click Atypical  105.  1830.   7.51
##  6 butterfly touch Atypical   12.9 1410.   7.25
##  7 cat       click Typical    53.4 1463    7.29
##  8 cat       touch Typical    23.3 1095    7.00
##  9 chameleon click Typical    56.7 1789    7.49
## 10 chameleon touch Typical    23.7 1498    7.31
## # … with 28 more rows
…
