ADA (week 12) Model comparison
…
Store in variable model1_noInnteraction_FE a regression with MAD as dependent variable, and as explanatory variables group and condition (but NOT the interaction between these two).

Store in variable model2_interaction_FE a regression with MAD as dependent variable, and as explanatory variables group, condition and the interaction between these two.

Store in variable model3_interaction_RandSlopes a model like model2_interaction_FE but also adding additionally random effects, namely random intercepts for factor subject_id.

Store in model4_interaction_MaxRE a model like model2_interaction_FE but with the maximal random effects structure licensed by the design of the experiment.

Solution:

# Let's have a look at the data again.
dolphin

## # A tibble: 1,915 x 16
##       X1 trial_id   MAD     AUC xpos_flips    RT prototype_label subject_id
##    <dbl> <chr>    <dbl>   <dbl>      <dbl> <dbl> <chr>                <dbl>
##  1     1 id0001    82.5  40170.          3   950 straight              1001
##  2     2 id0002    44.7  13947           1  1251 straight              1001
##  3     4 id0004   139.   74084           0   690 curved                1001
##  4     5 id0005   402.  223083           2   951 cCoM                  1001
##  5     6 id0006   670.  308376           2  1079 cCoM                  1001
##  6     7 id0007   850.  281298.          1  1050 dCoM                  1001
##  7     8 id0008    30.8  -2242           0   830 straight              1001
##  8     9 id0009    47.8  16458.          2   700 straight              1001
##  9    10 id0010   -22.6  -2794.          0   810 straight              1001
## 10    11 id0011   423.  182278.          2  1264 cCoM                  1001
## # … with 1,905 more rows, and 8 more variables: group <chr>, condition <chr>,
## #   exemplar <chr>, category_left <chr>, category_right <chr>,
## #   category_correct <chr>, response <chr>, correct <dbl>
…
